lab-3-data-and-plotting/8VData.csv

X,CH1,CH2,Start,Increment,
Sequence,Volt,Volt,-3.770000e-05,5.000000e-08
0,1.90e+01,-8.00e-03,
1,1.84e+01,4.00e-03,
2,1.88e+01,0.00e+00,
3,1.84e+01,-8.00e-03,
4,1.84e+01,-8.00e-03,
5,1.90e+01,4.00e-03,
6,1.84e+01,4.00e-03,
7,1.90e+01,-8.00e-03,
8,1.84e+01,-4.00e-03,
9,1.90e+01,4.00e-03,
10,1.88e+01,4.00e-03,
11,1.84e+01,-4.00e-03,
12,1.84e+01,4.00e-03,
13,1.88e+01,-8.00e-03,
14,1.90e+01,-4.00e-03,
15,1.84e+01,4.00e-03,
16,1.84e+01,-4.00e-03,
17,1.88e+01,4.00e-03,
18,1.84e+01,-8.00e-03,
19,1.90e+01,4.00e-03,
20,1.88e+01,4.00e-03,
21,1.84e+01,-8.00e-03,
22,1.84e+01,4.00e-03,
23,1.90e+01,-8.00e-03,
24,1.84e+01,-4.00e-03,
25,1.88e+01,4.00e-03,
26,1.88e+01,-4.00e-03,
27,1.84e+01,4.00e-03,
28,1.90e+01,-4.00e-03,
29,1.84e+01,4.00e-03,
30,1.90e+01,4.00e-03,
31,1.84e+01,-8.00e-03,
32,1.84e+01,-4.00e-03,
33,1.90e+01,4.00e-03,
34,1.88e+01,4.00e-03,
35,1.84e+01,-4.00e-03,
36,1.86e+01,-4.00e-03,
37,1.90e+01,4.00e-03,
38,1.90e+01,-4.00e-03,
39,1.84e+01,4.00e-03,
40,1.86e+01,4.00e-03,
41,1.90e+01,-4.00e-03,
42,1.88e+01,4.00e-03,
43,1.84e+01,-4.00e-03,
44,1.88e+01,4.00e-03,
45,1.84e+01,-4.00e-03,
46,1.84e+01,4.00e-03,
47,1.88e+01,-4.00e-03,
48,1.84e+01,4.00e-03,
49,1.88e+01,-4.00e-03,
50,1.84e+01,-4.00e-03,
51,1.88e+01,4.00e-03,
52,1.84e+01,4.00e-03,
53,1.90e+01,-4.00e-03,
54,1.84e+01,-4.00e-03,
55,1.90e+01,4.00e-03,
56,1.84e+01,4.00e-03,
57,1.88e+01,-4.00e-03,
58,1.88e+01,4.00e-03,
59,1.84e+01,-4.00e-03,
60,1.84e+01,4.00e-03,
61,1.88e+01,-4.00e-03,
62,1.84e+01,-4.00e-03,
63,1.90e+01,4.00e-03,
64,1.84e+01,4.00e-03,
65,1.88e+01,-4.00e-03,
66,1.84e+01,-4.00e-03,
67,1.88e+01,4.00e-03,
68,1.88e+01,4.00e-03,
69,1.84e+01,-4.00e-03,
70,1.84e+01,4.00e-03,
71,1.90e+01,-4.00e-03,
72,1.88e+01,-4.00e-03,
73,1.84e+01,4.00e-03,
74,1.90e+01,4.00e-03,
75,1.84e+01,-4.00e-03,
76,1.88e+01,4.00e-03,
77,1.84e+01,-4.00e-03,
78,1.88e+01,4.00e-03,
79,1.84e+01,-4.00e-03,
80,1.84e+01,-4.00e-03,
81,1.88e+01,4.00e-03,
82,1.88e+01,4.00e-03,
83,1.84e+01,-4.00e-03,
84,1.84e+01,4.00e-03,
85,1.88e+01,-4.00e-03,
86,1.84e+01,4.00e-03,
87,1.88e+01,-4.00e-03,
88,1.84e+01,4.00e-03,
89,1.88e+01,-4.00e-03,
90,1.84e+01,4.00e-03,
91,1.88e+01,-4.00e-03,
92,1.84e+01,4.00e-03,
93,1.88e+01,-4.00e-03,
94,1.88e+01,4.00e-03,
95,1.84e+01,-4.00e-03,
96,1.84e+01,4.00e-03,
97,1.88e+01,-4.00e-03,
98,1.88e+01,4.00e-03,
99,1.84e+01,-4.00e-03,
100,1.84e+01,-4.00e-03,
101,1.88e+01,4.00e-03,
102,1.84e+01,-4.00e-03,
103,1.88e+01,4.00e-03,
104,1.84e+01,4.00e-03,
105,1.88e+01,-4.00e-03,
106,1.84e+01,4.00e-03,
107,1.88e+01,-4.00e-03,
108,1.84e+01,4.00e-03,
109,1.88e+01,-4.00e-03,
110,1.84e+01,4.00e-03,
111,1.88e+01,-4.00e-03,
112,1.84e+01,4.00e-03,
113,1.88e+01,-4.00e-03,
114,1.86e+01,4.00e-03,
115,1.78e+01,-4.00e-03,
116,1.80e+01,4.00e-03,
117,1.36e+01,-4.00e-03,
118,1.36e+01,4.00e-03,
119,8.60e+00,-4.00e-03,
120,8.60e+00,4.00e-03,
121,5.60e+00,-4.00e-03,
122,5.80e+00,4.00e-03,
123,4.60e+00,-4.00e-03,
124,4.80e+00,4.00e-03,
125,6.60e+00,0.00e+00,
126,6.40e+00,-4.00e-03,
127,9.60e+00,8.00e-03,
128,9.60e+00,4.00e-03,
129,1.38e+01,-4.00e-03,
130,1.40e+01,4.00e-03,
131,1.64e+01,-4.00e-03,
132,1.66e+01,-4.00e-03,
133,1.54e+01,4.00e-03,
134,1.54e+01,-4.00e-03,
135,1.18e+01,4.00e-03,
136,1.18e+01,4.00e-03,
137,8.00e+00,-4.00e-03,
138,8.20e+00,4.00e-03,
139,6.00e+00,-4.00e-03,
140,5.60e+00,4.00e-03,
141,6.20e+00,-4.00e-03,
142,5.80e+00,4.00e-03,
143,7.80e+00,-4.00e-03,
144,7.60e+00,4.00e-03,
145,1.04e+01,-4.00e-03,
146,1.04e+01,4.00e-03,
147,1.34e+01,-4.00e-03,
148,1.34e+01,4.00e-03,
149,1.50e+01,-4.00e-03,
150,1.50e+01,-4.00e-03,
151,1.36e+01,4.00e-03,
152,1.34e+01,4.00e-03,
153,1.04e+01,-4.00e-03,
154,1.06e+01,-4.00e-03,
155,8.00e+00,4.00e-03,
156,8.00e+00,-4.00e-03,
157,6.60e+00,4.00e-03,
158,6.40e+00,-4.00e-03,
159,7.00e+00,4.00e-03,
160,7.00e+00,4.00e-03,
161,8.60e+00,-4.00e-03,
162,8.60e+00,4.00e-03,
163,1.12e+01,-4.00e-03,
164,1.10e+01,4.00e-03,
165,1.32e+01,-4.00e-03,
166,1.32e+01,4.00e-03,
167,1.40e+01,-8.00e-03,
168,1.38e+01,-4.00e-03,
169,1.22e+01,4.00e-03,
170,1.22e+01,-4.00e-03,
171,1.00e+01,4.00e-03,
172,1.00e+01,-4.00e-03,
173,8.00e+00,4.00e-03,
174,8.20e+00,4.00e-03,
175,7.20e+00,-4.00e-03,
176,7.20e+00,4.00e-03,
177,8.00e+00,-4.00e-03,
178,8.00e+00,4.00e-03,
179,9.60e+00,-4.00e-03,
180,9.40e+00,4.00e-03,
181,1.16e+01,-4.00e-03,
182,1.14e+01,4.00e-03,
183,1.28e+01,-4.00e-03,
184,1.26e+01,4.00e-03,
185,1.32e+01,-4.00e-03,
186,1.30e+01,4.00e-03,
187,1.14e+01,-8.00e-03,
188,1.14e+01,-4.00e-03,
189,9.40e+00,4.00e-03,
190,9.80e+00,-4.00e-03,
191,8.20e+00,4.00e-03,
192,8.40e+00,4.00e-03,
193,7.80e+00,-4.00e-03,
194,7.80e+00,-4.00e-03,
195,8.80e+00,4.00e-03,
196,8.60e+00,4.00e-03,
197,1.00e+01,-4.00e-03,
198,1.26e+01,-4.00e-03,
199,9.80e+00,1.64e-01,
200,7.80e+00,-9.60e-02,
201,-2.00e-01,8.00e-02,
202,2.00e-01,8.00e-03,
203,-4.00e-01,1.60e-02,
204,2.00e-01,1.60e-02,
205,-4.00e-01,8.00e-03,
206,2.00e-01,8.00e-03,
207,-2.00e-01,2.00e-02,
208,2.00e-01,1.20e-02,
209,-4.00e-01,2.00e-02,
210,2.00e-01,1.60e-02,
211,-2.00e-01,2.40e-02,
212,2.00e-01,2.40e-02,
213,-2.00e-01,1.60e-02,
214,2.00e-01,2.00e-02,
215,-2.00e-01,2.80e-02,
216,2.00e-01,2.40e-02,
217,-4.00e-01,3.20e-02,
218,2.00e-01,2.40e-02,
219,-2.00e-01,3.60e-02,
220,-2.00e-01,3.60e-02,
221,4.00e-01,2.80e-02,
222,-2.00e-01,4.00e-02,
223,2.00e-01,3.20e-02,
224,2.00e-01,3.60e-02,
225,-4.00e-01,4.40e-02,
226,2.00e-01,3.60e-02,
227,-4.00e-01,4.40e-02,
228,-4.00e-01,4.80e-02,
229,4.00e-01,4.00e-02,
230,2.00e-01,4.40e-02,
231,-2.00e-01,5.20e-02,
232,-2.00e-01,4.40e-02,
233,4.00e-01,5.60e-02,
234,-2.00e-01,5.60e-02,
235,2.00e-01,4.80e-02,
236,2.00e-01,5.20e-02,
237,-2.00e-01,6.00e-02,
238,-2.00e-01,5.60e-02,
239,4.00e-01,6.40e-02,
240,-2.00e-01,6.00e-02,
241,4.00e-01,6.80e-02,
242,4.00e-01,6.40e-02,
243,-2.00e-01,7.20e-02,
244,4.00e-01,6.40e-02,
245,-2.00e-01,7.20e-02,
246,6.00e-01,6.80e-02,
247,-2.00e-01,7.60e-02,
248,-2.00e-01,7.20e-02,
249,4.00e-01,8.00e-02,
250,4.00e-01,7.60e-02,
251,-2.00e-01,8.00e-02,
252,-2.00e-01,7.60e-02,
253,4.00e-01,8.40e-02,
254,-2.00e-01,8.00e-02,
255,4.00e-01,8.80e-02,
256,4.00e-01,8.80e-02,
257,-2.00e-01,8.40e-02,
258,-2.00e-01,8.40e-02,
259,4.00e-01,9.20e-02,
260,0.00e+00,8.80e-02,
261,6.00e-01,9.60e-02,
262,-2.00e-01,9.20e-02,
263,6.00e-01,9.60e-02,
264,4.00e-01,1.00e-01,
265,-2.00e-01,9.20e-02,
266,-2.00e-01,9.60e-02,
267,4.00e-01,1.04e-01,
268,4.00e-01,9.60e-02,
269,-2.00e-01,1.08e-01,
270,4.00e-01,1.00e-01,
271,-2.00e-01,1.12e-01,
272,-2.00e-01,1.04e-01,
273,4.00e-01,1.12e-01,
274,4.00e-01,1.04e-01,
275,-2.00e-01,1.16e-01,
276,-2.00e-01,1.16e-01,
277,4.00e-01,1.08e-01,
278,6.00e-01,1.12e-01,
279,-2.00e-01,1.20e-01,
280,4.00e-01,1.12e-01,
281,-2.00e-01,1.20e-01,
282,0.00e+00,1.24e-01,
283,4.00e-01,1.16e-01,
284,0.00e+00,1.20e-01,
285,4.00e-01,1.28e-01,
286,-2.00e-01,1.24e-01,
287,4.00e-01,1.32e-01,
288,4.00e-01,1.24e-01,
289,-2.00e-01,1.32e-01,
290,4.00e-01,1.28e-01,
291,-2.00e-01,1.36e-01,
292,4.00e-01,1.28e-01,
293,-2.00e-01,1.40e-01,
294,4.00e-01,1.32e-01,
295,-2.00e-01,1.40e-01,
296,4.00e-01,1.36e-01,
297,-2.00e-01,1.44e-01,
298,4.00e-01,1.36e-01,
299,0.00e+00,1.44e-01,
300,0.00e+00,1.40e-01,
301,4.00e-01,1.48e-01,
302,0.00e+00,1.44e-01,
303,6.00e-01,1.52e-01,
304,0.00e+00,1.44e-01,
305,4.00e-01,1.56e-01,
306,6.00e-01,1.56e-01,
307,-2.00e-01,1.48e-01,
308,6.00e-01,1.52e-01,
309,-2.00e-01,1.60e-01,
310,0.00e+00,1.52e-01,
311,4.00e-01,1.60e-01,
312,4.00e-01,1.56e-01,
313,-2.00e-01,1.64e-01,
314,6.00e-01,1.60e-01,
315,-2.00e-01,1.68e-01,
316,4.00e-01,1.60e-01,
317,0.00e+00,1.68e-01,
318,6.00e-01,1.72e-01,
319,-2.00e-01,1.64e-01,
320,4.00e-01,1.72e-01,
321,-2.00e-01,1.64e-01,
322,-2.00e-01,1.68e-01,
323,6.00e-01,1.76e-01,
324,4.00e-01,1.72e-01,
325,-2.00e-01,1.80e-01,
326,4.00e-01,1.76e-01,
327,0.00e+00,1.84e-01,
328,4.00e-01,1.84e-01,
329,0.00e+00,1.76e-01,
330,-2.00e-01,1.80e-01,
331,6.00e-01,1.88e-01,
332,0.00e+00,1.84e-01,
333,6.00e-01,1.88e-01,
334,4.00e-01,1.92e-01,
335,0.00e+00,1.84e-01,
336,4.00e-01,1.88e-01,
337,0.00e+00,1.96e-01,
338,0.00e+00,1.96e-01,
339,8.00e-01,1.92e-01,
340,0.00e+00,1.96e-01,
341,6.00e-01,2.00e-01,
342,0.00e+00,2.00e-01,
343,6.00e-01,2.00e-01,
344,0.00e+00,2.00e-01,
345,6.00e-01,2.04e-01,
346,0.00e+00,2.08e-01,
347,6.00e-01,1.20e-01,
348,-2.00e-01,1.96e-01,
349,6.00e-01,2.12e-01,
350,0.00e+00,2.04e-01,
351,3.00e+00,2.08e-01,
352,2.80e+00,2.04e-01,
353,1.36e+01,1.96e-01,
354,1.44e+01,-3.60e-01,
355,2.12e+01,3.00e-01,
356,1.98e+01,-2.40e-01,
357,1.76e+01,1.80e-01,
358,1.80e+01,8.40e-02,
359,1.90e+01,-1.00e-01,
360,1.88e+01,3.20e-02,
361,1.82e+01,-5.60e-02,
362,1.84e+01,8.00e-03,
363,1.88e+01,-2.80e-02,
364,1.84e+01,4.00e-03,
365,1.88e+01,-2.00e-02,
366,1.84e+01,-1.20e-02,
367,1.88e+01,0.00e+00,
368,1.88e+01,0.00e+00,
369,1.84e+01,-1.20e-02,
370,1.84e+01,0.00e+00,
371,1.88e+01,-1.20e-02,
372,1.88e+01,-8.00e-03,
373,1.84e+01,0.00e+00,
374,1.84e+01,-8.00e-03,
375,1.88e+01,0.00e+00,
376,1.84e+01,0.00e+00,
377,1.88e+01,-8.00e-03,
378,1.88e+01,-8.00e-03,
379,1.84e+01,0.00e+00,
380,1.88e+01,-8.00e-03,
381,1.84e+01,0.00e+00,
382,1.84e+01,0.00e+00,
383,1.88e+01,-8.00e-03,
384,1.88e+01,0.00e+00,
385,1.84e+01,-8.00e-03,
386,1.84e+01,-8.00e-03,
387,1.90e+01,0.00e+00,
388,1.90e+01,0.00e+00,
389,1.84e+01,-8.00e-03,
390,1.84e+01,0.00e+00,
391,1.88e+01,-8.00e-03,
392,1.84e+01,0.00e+00,
393,1.90e+01,-8.00e-03,
394,1.88e+01,0.00e+00,
395,1.84e+01,-8.00e-03,
396,1.84e+01,-8.00e-03,
397,1.88e+01,0.00e+00,
398,1.84e+01,0.00e+00,
399,1.88e+01,-8.00e-03,
400,1.84e+01,0.00e+00,
401,1.90e+01,-8.00e-03,
402,1.88e+01,0.00e+00,
403,1.84e+01,-4.00e-03,
404,1.84e+01,-8.00e-03,
405,1.90e+01,4.00e-03,
406,1.88e+01,-4.00e-03,
407,1.84e+01,4.00e-03,
408,1.84e+01,-4.00e-03,
409,1.90e+01,0.00e+00,
410,1.86e+01,-4.00e-03,
411,1.88e+01,4.00e-03,
412,1.90e+01,-4.00e-03,
413,1.84e+01,4.00e-03,
414,1.88e+01,-4.00e-03,
415,1.84e+01,0.00e+00,
416,1.90e+01,-4.00e-03,
417,1.84e+01,4.00e-03,
418,1.88e+01,-4.00e-03,
419,1.84e+01,4.00e-03,
420,1.88e+01,-4.00e-03,
421,1.84e+01,4.00e-03,
422,1.84e+01,-4.00e-03,
423,1.90e+01,4.00e-03,
424,1.84e+01,-4.00e-03,
425,1.90e+01,4.00e-03,
426,1.88e+01,4.00e-03,
427,1.84e+01,-4.00e-03,
428,1.88e+01,4.00e-03,
429,1.84e+01,-4.00e-03,
430,1.84e+01,-4.00e-03,
431,1.90e+01,4.00e-03,
432,1.84e+01,4.00e-03,
433,1.90e+01,-4.00e-03,
434,1.88e+01,-4.00e-03,
435,1.84e+01,4.00e-03,
436,1.88e+01,4.00e-03,
437,1.84e+01,-4.00e-03,
438,1.84e+01,-4.00e-03,
439,1.88e+01,4.00e-03,
440,1.86e+01,-4.00e-03,
441,1.88e+01,4.00e-03,
442,1.90e+01,-4.00e-03,
443,1.84e+01,4.00e-03,
444,1.84e+01,4.00e-03,
445,1.90e+01,-4.00e-03,
446,1.88e+01,-4.00e-03,
447,1.84e+01,4.00e-03,
448,1.84e+01,-4.00e-03,
449,1.90e+01,4.00e-03,
450,1.88e+01,4.00e-03,
451,1.84e+01,-4.00e-03,
452,1.84e+01,4.00e-03,
453,1.90e+01,-4.00e-03,
454,1.84e+01,4.00e-03,
455,1.90e+01,-4.00e-03,
456,1.84e+01,-4.00e-03,
457,1.90e+01,4.00e-03,
458,1.88e+01,4.00e-03,
459,1.84e+01,-4.00e-03,
460,1.84e+01,4.00e-03,
461,1.88e+01,-4.00e-03,
462,1.84e+01,4.00e-03,
463,1.90e+01,-4.00e-03,
464,1.84e+01,-4.00e-03,
465,1.90e+01,4.00e-03,
466,1.84e+01,4.00e-03,
467,1.88e+01,-4.00e-03,
468,1.88e+01,4.00e-03,
469,1.84e+01,-4.00e-03,
470,1.84e+01,4.00e-03,
471,1.90e+01,-4.00e-03,
472,1.84e+01,-4.00e-03,
473,1.90e+01,4.00e-03,
474,1.88e+01,4.00e-03,
475,1.84e+01,-4.00e-03,
476,1.84e+01,4.00e-03,
477,1.88e+01,-4.00e-03,
478,1.84e+01,4.00e-03,
479,1.90e+01,-4.00e-03,
480,1.84e+01,4.00e-03,
481,1.88e+01,-4.00e-03,
482,1.84e+01,4.00e-03,
483,1.88e+01,-4.00e-03,
484,1.84e+01,4.00e-03,
485,1.88e+01,-4.00e-03,
486,1.88e+01,4.00e-03,
487,1.84e+01,-4.00e-03,
488,1.86e+01,0.00e+00,
489,1.84e+01,4.00e-03,
490,1.84e+01,4.00e-03,
491,1.88e+01,-4.00e-03,
492,1.84e+01,4.00e-03,
493,1.88e+01,-4.00e-03,
494,1.84e+01,4.00e-03,
495,1.88e+01,-4.00e-03,
496,1.84e+01,4.00e-03,
497,1.88e+01,-4.00e-03,
498,1.88e+01,4.00e-03,
499,1.84e+01,-4.00e-03,
500,1.84e+01,4.00e-03,
501,1.88e+01,-4.00e-03,
502,1.84e+01,4.00e-03,
503,1.88e+01,-4.00e-03,
504,1.84e+01,4.00e-03,
505,1.88e+01,-4.00e-03,
506,1.88e+01,0.00e+00,
507,1.84e+01,4.00e-03,
508,1.84e+01,4.00e-03,
509,1.88e+01,-4.00e-03,
510,1.84e+01,4.00e-03,
511,1.88e+01,-4.00e-03,
512,1.88e+01,4.00e-03,
513,1.82e+01,-4.00e-03,
514,1.88e+01,-4.00e-03,
515,1.82e+01,4.00e-03,
516,1.84e+01,-4.00e-03,
517,1.60e+01,4.00e-03,
518,1.58e+01,-4.00e-03,
519,1.08e+01,4.00e-03,
520,1.06e+01,-4.00e-03,
521,6.40e+00,4.00e-03,
522,6.60e+00,4.00e-03,
523,4.80e+00,-4.00e-03,
524,4.60e+00,0.00e+00,
525,5.40e+00,8.00e-03,
526,5.60e+00,8.00e-03,
527,8.20e+00,0.00e+00,
528,8.20e+00,0.00e+00,
529,1.20e+01,8.00e-03,
530,1.20e+01,4.00e-03,
531,1.56e+01,-4.00e-03,
532,1.54e+01,-4.00e-03,
533,1.66e+01,4.00e-03,
534,1.64e+01,-4.00e-03,
535,1.36e+01,4.00e-03,
536,1.34e+01,-4.00e-03,
537,9.40e+00,4.00e-03,
538,9.60e+00,-4.00e-03,
539,6.60e+00,4.00e-03,
540,6.80e+00,4.00e-03,
541,5.60e+00,-4.00e-03,
542,5.60e+00,4.00e-03,
543,7.00e+00,0.00e+00,
544,6.60e+00,4.00e-03,
545,9.40e+00,-4.00e-03,
546,9.20e+00,4.00e-03,
547,1.24e+01,-4.00e-03,
548,1.24e+01,4.00e-03,
549,1.46e+01,-4.00e-03,
550,1.50e+01,4.00e-03,
551,1.44e+01,-4.00e-03,
552,1.44e+01,-4.00e-03,
553,1.18e+01,4.00e-03,
554,1.20e+01,-4.00e-03,
555,9.00e+00,4.00e-03,
556,9.00e+00,-4.00e-03,
557,6.80e+00,4.00e-03,
558,7.20e+00,4.00e-03,
559,6.40e+00,-4.00e-03,
560,6.60e+00,-4.00e-03,
561,8.00e+00,8.00e-03,
562,7.80e+00,4.00e-03,
563,1.00e+01,-4.00e-03,
564,1.00e+01,4.00e-03,
565,1.26e+01,-4.00e-03,
566,1.26e+01,-4.00e-03,
567,1.40e+01,4.00e-03,
568,1.40e+01,4.00e-03,
569,1.30e+01,-4.00e-03,
570,1.32e+01,4.00e-03,
571,1.10e+01,-4.00e-03,
572,1.10e+01,-4.00e-03,
573,8.60e+00,4.00e-03,
574,9.00e+00,4.00e-03,
575,7.40e+00,-4.00e-03,
576,7.20e+00,-4.00e-03,
577,7.80e+00,4.00e-03,
578,7.40e+00,-4.00e-03,
579,8.80e+00,4.00e-03,
580,8.80e+00,4.00e-03,
581,1.06e+01,-4.00e-03,
582,1.06e+01,4.00e-03,
583,1.24e+01,-4.00e-03,
584,1.24e+01,4.00e-03,
585,1.32e+01,-4.00e-03,
586,1.32e+01,-4.00e-03,
587,1.20e+01,4.00e-03,
588,1.20e+01,4.00e-03,
589,1.02e+01,-4.00e-03,
590,1.04e+01,-4.00e-03,
591,8.60e+00,4.00e-03,
592,8.80e+00,4.00e-03,
593,8.00e+00,-4.00e-03,
594,7.80e+00,-4.00e-03,
595,8.40e+00,4.00e-03,
596,8.20e+00,-4.00e-03,
597,9.40e+00,4.00e-03,
598,9.20e+00,4.00e-03,
599,1.10e+01,-4.00e-03,
600,1.34e+01,1.56e-01,
601,6.80e+00,-8.40e-02,
602,6.20e+00,9.60e-02,
603,-4.00e-01,-4.80e-02,
604,2.00e-01,8.00e-03,
605,-4.00e-01,1.60e-02,
606,2.00e-01,8.00e-03,
607,-4.00e-01,1.60e-02,
608,2.00e-01,1.60e-02,
609,-4.00e-01,8.00e-03,
610,2.00e-01,1.20e-02,
611,-2.00e-01,2.00e-02,
612,2.00e-01,1.60e-02,
613,-4.00e-01,2.40e-02,
614,2.00e-01,1.60e-02,
615,-4.00e-01,2.80e-02,
616,2.00e-01,2.00e-02,
617,-2.00e-01,2.80e-02,
618,2.00e-01,2.40e-02,
619,-4.00e-01,3.20e-02,
620,2.00e-01,2.40e-02,
621,-2.00e-01,3.60e-02,
622,2.00e-01,2.80e-02,
623,-4.00e-01,4.00e-02,
624,2.00e-01,3.20e-02,
625,-2.00e-01,4.00e-02,
626,2.00e-01,3.60e-02,
627,-2.00e-01,4.40e-02,
628,2.00e-01,4.00e-02,
629,-2.00e-01,4.80e-02,
630,4.00e-01,4.80e-02,
631,-2.00e-01,4.00e-02,
632,2.00e-01,4.80e-02,
633,-2.00e-01,5.20e-02,
634,4.00e-01,5.20e-02,
635,-2.00e-01,4.80e-02,
636,4.00e-01,4.80e-02,
637,-2.00e-01,5.60e-02,
638,2.00e-01,6.00e-02,
639,-2.00e-01,5.20e-02,
640,2.00e-01,5.60e-02,
641,-2.00e-01,6.40e-02,
642,6.00e-01,6.00e-02,
643,-2.00e-01,6.40e-02,
644,-2.00e-01,6.40e-02,
645,4.00e-01,6.80e-02,
646,-4.00e-01,6.40e-02,
647,4.00e-01,7.20e-02,
648,2.00e-01,6.80e-02,
649,-2.00e-01,7.60e-02,
650,4.00e-01,7.20e-02,
651,-2.00e-01,8.00e-02,
652,-2.00e-01,7.20e-02,
653,4.00e-01,8.40e-02,
654,-2.00e-01,7.60e-02,
655,4.00e-01,8.40e-02,
656,-2.00e-01,8.00e-02,
657,4.00e-01,8.40e-02,
658,4.00e-01,8.40e-02,
659,-2.00e-01,9.20e-02,
660,-2.00e-01,8.40e-02,
661,6.00e-01,9.20e-02,
662,4.00e-01,8.80e-02,
663,-2.00e-01,9.60e-02,
664,4.00e-01,8.80e-02,
665,-2.00e-01,9.60e-02,
666,-2.00e-01,9.20e-02,
667,4.00e-01,1.00e-01,
668,4.00e-01,9.60e-02,
669,-2.00e-01,1.04e-01,
670,0.00e+00,1.00e-01,
671,4.00e-01,1.08e-01,
672,0.00e+00,1.00e-01,
673,4.00e-01,1.08e-01,
674,0.00e+00,1.04e-01,
675,4.00e-01,1.12e-01,
676,0.00e+00,1.08e-01,
677,4.00e-01,1.16e-01,
678,4.00e-01,1.08e-01,
679,-2.00e-01,1.16e-01,
680,6.00e-01,1.12e-01,
681,-2.00e-01,1.20e-01,
682,0.00e+00,1.16e-01,
683,4.00e-01,1.24e-01,
684,-2.00e-01,1.16e-01,
685,4.00e-01,1.24e-01,
686,4.00e-01,1.20e-01,
687,-2.00e-01,1.28e-01,
688,0.00e+00,1.24e-01,
689,6.00e-01,1.32e-01,
690,4.00e-01,1.24e-01,
691,0.00e+00,1.32e-01,
692,4.00e-01,1.28e-01,
693,-2.00e-01,1.36e-01,
694,4.00e-01,1.32e-01,
695,0.00e+00,1.40e-01,
696,-2.00e-01,1.32e-01,
697,4.00e-01,1.40e-01,
698,0.00e+00,1.36e-01,
699,6.00e-01,1.44e-01,
700,-2.00e-01,1.36e-01,
701,4.00e-01,1.48e-01,
702,4.00e-01,1.48e-01,
703,-2.00e-01,1.40e-01,
704,4.00e-01,1.44e-01,
705,-2.00e-01,1.52e-01,
706,4.00e-01,1.52e-01,
707,-2.00e-01,1.48e-01,
708,4.00e-01,1.48e-01,
709,-2.00e-01,1.56e-01,
710,4.00e-01,1.52e-01,
711,-2.00e-01,1.60e-01,
712,0.00e+00,1.52e-01,
713,6.00e-01,1.64e-01,
714,4.00e-01,1.64e-01,
715,0.00e+00,1.56e-01,
716,0.00e+00,1.60e-01,
717,6.00e-01,1.68e-01,
718,0.00e+00,1.68e-01,
719,6.00e-01,1.60e-01,
720,0.00e+00,1.72e-01,
721,6.00e-01,1.64e-01,
722,4.00e-01,1.68e-01,
723,-2.00e-01,1.76e-01,
724,6.00e-01,1.76e-01,
725,-2.00e-01,1.68e-01,
726,4.00e-01,1.72e-01,
727,-2.00e-01,1.80e-01,
728,4.00e-01,1.76e-01,
729,-2.00e-01,1.84e-01,
730,4.00e-01,1.84e-01,
731,-2.00e-01,1.76e-01,
732,0.00e+00,1.88e-01,
733,6.00e-01,1.80e-01,
734,-2.00e-01,1.80e-01,
735,6.00e-01,1.92e-01,
736,0.00e+00,1.92e-01,
737,6.00e-01,1.84e-01,
738,4.00e-01,1.96e-01,
739,0.00e+00,1.88e-01,
740,4.00e-01,1.92e-01,
741,0.00e+00,1.96e-01,
742,0.00e+00,2.00e-01,
743,6.00e-01,1.92e-01,
744,0.00e+00,2.00e-01,
745,6.00e-01,2.04e-01,
746,6.00e-01,2.00e-01,
747,0.00e+00,2.04e-01,
748,0.00e+00,2.12e-01,
749,6.00e-01,1.20e-01,
750,4.00e-01,1.92e-01,
751,0.00e+00,2.04e-01,
752,0.00e+00,2.04e-01,
753,2.60e+00,2.08e-01,
754,2.60e+00,2.08e-01,
755,1.22e+01,1.96e-01,
756,1.26e+01,-3.60e-01,
757,2.12e+01,3.00e-01,
758,1.74e+01,2.20e-01,
759,1.96e+01,-2.36e-01,
760,1.92e+01,-1.20e-01,
761,1.82e+01,8.40e-02,
762,1.82e+01,3.60e-02,
763,1.90e+01,-5.60e-02,
764,1.84e+01,-2.80e-02,
765,1.90e+01,1.20e-02,
766,1.84e+01,4.00e-03,
767,1.88e+01,-1.60e-02,
768,1.86e+01,-1.20e-02,
769,1.84e+01,0.00e+00,
770,1.84e+01,0.00e+00,
771,1.88e+01,-1.20e-02,
772,1.84e+01,-8.00e-03,
773,1.88e+01,0.00e+00,
774,1.84e+01,-8.00e-03,
775,1.88e+01,0.00e+00,
776,1.84e+01,-8.00e-03,
777,1.88e+01,0.00e+00,
778,1.88e+01,0.00e+00,
779,1.84e+01,-8.00e-03,
780,1.84e+01,-8.00e-03,
781,1.88e+01,0.00e+00,
782,1.84e+01,0.00e+00,
783,1.88e+01,-8.00e-03,
784,1.84e+01,-8.00e-03,
785,1.88e+01,0.00e+00,
786,1.84e+01,0.00e+00,
787,1.88e+01,-8.00e-03,
788,1.84e+01,0.00e+00,
789,1.88e+01,-8.00e-03,
790,1.88e+01,-8.00e-03,
791,1.84e+01,0.00e+00,
792,1.90e+01,0.00e+00,
793,1.84e+01,-8.00e-03,
794,1.88e+01,0.00e+00,
795,1.84e+01,-8.00e-03,
796,1.90e+01,-8.00e-03,
797,1.84e+01,4.00e-03,
798,1.88e+01,0.00e+00,
799,1.84e+01,-8.00e-03,
800,1.90e+01,-8.00e-03,
801,1.84e+01,4.00e-03,
802,1.84e+01,0.00e+00,
803,1.90e+01,-8.00e-03,
804,1.88e+01,0.00e+00,
805,1.84e+01,-8.00e-03,
806,1.90e+01,4.00e-03,
807,1.84e+01,-8.00e-03,
808,1.88e+01,-4.00e-03,
809,1.84e+01,4.00e-03,
810,1.84e+01,-4.00e-03,
811,1.90e+01,4.00e-03,
812,1.84e+01,-4.00e-03,
813,1.88e+01,4.00e-03,
814,1.90e+01,-4.00e-03,
815,1.84e+01,4.00e-03,
816,1.90e+01,-4.00e-03,
817,1.84e+01,4.00e-03,
818,1.88e+01,-4.00e-03,
819,1.84e+01,4.00e-03,
820,1.88e+01,4.00e-03,
821,1.84e+01,-4.00e-03,
822,1.88e+01,4.00e-03,
823,1.84e+01,-4.00e-03,
824,1.84e+01,-4.00e-03,
825,1.90e+01,4.00e-03,
826,1.84e+01,-4.00e-03,
827,1.88e+01,4.00e-03,
828,1.84e+01,4.00e-03,
829,1.90e+01,-4.00e-03,
830,1.88e+01,-4.00e-03,
831,1.84e+01,4.00e-03,
832,1.84e+01,-4.00e-03,
833,1.90e+01,4.00e-03,
834,1.88e+01,-4.00e-03,
835,1.84e+01,4.00e-03,
836,1.88e+01,-4.00e-03,
837,1.84e+01,4.00e-03,
838,1.84e+01,-4.00e-03,
839,1.90e+01,4.00e-03,
840,1.84e+01,4.00e-03,
841,1.88e+01,-4.00e-03,
842,1.90e+01,-4.00e-03,
843,1.84e+01,4.00e-03,
844,1.84e+01,-4.00e-03,
845,1.88e+01,4.00e-03,
846,1.84e+01,-4.00e-03,
847,1.90e+01,4.00e-03,
848,1.84e+01,4.00e-03,
849,1.88e+01,-4.00e-03,
850,1.84e+01,4.00e-03,
851,1.88e+01,-4.00e-03,
852,1.84e+01,4.00e-03,
853,1.88e+01,-4.00e-03,
